\relax 
\providecommand\zref@newlabel[2]{}
\providecommand\hyper@newdestlabel[2]{}
\providecommand\HyperFirstAtBeginDocument{\AtBeginDocument}
\HyperFirstAtBeginDocument{\ifx\hyper@anchor\@undefined
\global\let\oldcontentsline\contentsline
\gdef\contentsline#1#2#3#4{\oldcontentsline{#1}{#2}{#3}}
\global\let\oldnewlabel\newlabel
\gdef\newlabel#1#2{\newlabelxx{#1}#2}
\gdef\newlabelxx#1#2#3#4#5#6{\oldnewlabel{#1}{{#2}{#3}}}
\AtEndDocument{\ifx\hyper@anchor\@undefined
\let\contentsline\oldcontentsline
\let\newlabel\oldnewlabel
\fi}
\fi}
\global\let\hyper@last\relax 
\gdef\HyperFirstAtBeginDocument#1{#1}
\providecommand*\HyPL@Entry[1]{}
\HyPL@Entry{0<</S/D>>}
\providecommand \oddpage@label [2]{}
\HyPL@Entry{1<</S/r>>}
\@writefile{toc}{\contentsline {chapter}{Abstract}{i}{chapter*.1}\protected@file@percent }
\@writefile{toc}{\contentsline {chapter}{Acknowledgements}{ii}{chapter*.2}\protected@file@percent }
\citation{Sirgue}
\HyPL@Entry{4<</S/D>>}
\@writefile{toc}{\contentsline {chapter}{\numberline {1}Introduction}{1}{chapter.1}\protected@file@percent }
\@writefile{lof}{\addvspace {10\p@ }}
\@writefile{lot}{\addvspace {10\p@ }}
\@writefile{loa}{\addvspace {10\p@ }}
\citation{Sirgue}
\@writefile{toc}{\contentsline {chapter}{\numberline {2}Background }{2}{chapter.2}\protected@file@percent }
\@writefile{lof}{\addvspace {10\p@ }}
\@writefile{lot}{\addvspace {10\p@ }}
\newlabel{ch:1}{{2}{2}{Background}{chapter.2}{}}
\@writefile{loa}{\addvspace {10\p@ }}
\@writefile{toc}{\contentsline {section}{\numberline {2.1}Full Waveform Inversion}{2}{section.2.1}\protected@file@percent }
\providecommand*\caption@xref[2]{\@setref\relax\@undefined{#1}}
\newlabel{fig:tracea}{{2.1(a)}{2}{Subfigure 2 2.1(a)}{subfigure.2.1.1}{}}
\newlabel{sub@fig:tracea}{{(a)}{2}{Subfigure 2 2.1(a)\relax }{subfigure.2.1.1}{}}
\newlabel{fig:traceb}{{2.1(b)}{2}{Subfigure 2 2.1(b)}{subfigure.2.1.2}{}}
\newlabel{sub@fig:traceb}{{(b)}{2}{Subfigure 2 2.1(b)\relax }{subfigure.2.1.2}{}}
\@writefile{lof}{\contentsline {figure}{\numberline {2.1}{\ignorespaces A seismic trace and a seismogram recording the arrival times (on the ordinate) of the waves emitted by a source at respectively one receiver and several receivers. In the seismogram, the abcissa corresponds to the distance of a receiver to the associated source, or offset, and thus is a function of space and time.\relax }}{2}{figure.caption.4}\protected@file@percent }
\newlabel{fig:offset}{{2.1}{2}{A seismic trace and a seismogram recording the arrival times (on the ordinate) of the waves emitted by a source at respectively one receiver and several receivers. In the seismogram, the abcissa corresponds to the distance of a receiver to the associated source, or offset, and thus is a function of space and time.\relax }{figure.caption.4}{}}
\@writefile{lof}{\contentsline {subfigure}{\numberline{(a)}{\ignorespaces {A seismic trace}}}{2}{figure.caption.4}\protected@file@percent }
\@writefile{lof}{\contentsline {subfigure}{\numberline{(b)}{\ignorespaces {Seismogram}}}{2}{figure.caption.4}\protected@file@percent }
\citation{lecture_notes}
\citation{lecture_notes}
\citation{lecture_notes}
\citation{adjoint_tuto}
\newlabel{eq:pde}{{2.1}{3}{Full Waveform Inversion}{equation.2.1.1}{}}
\newlabel{eq:forward}{{2.2}{3}{Full Waveform Inversion}{equation.2.1.2}{}}
\newlabel{eq:min}{{2.3}{3}{Full Waveform Inversion}{equation.2.1.3}{}}
\@writefile{lof}{\contentsline {figure}{\numberline {2.2}{\ignorespaces Illustration of the iterative process used in the FWI \cite  {lecture_notes}.\relax }}{3}{figure.caption.5}\protected@file@percent }
\citation{adjoint_geophysics}
\citation{Sirgue}
\@writefile{toc}{\contentsline {section}{\numberline {2.2}Wavenumber content of the Gradient}{4}{section.2.2}\protected@file@percent }
\newlabel{eq:k0}{{2.6}{4}{Wavenumber content of the Gradient}{equation.2.2.6}{}}
\newlabel{eq:approximation_gradient}{{2.7}{4}{Wavenumber content of the Gradient}{equation.2.2.7}{}}
\newlabel{eq:ps+pr}{{2.8}{4}{Wavenumber content of the Gradient}{equation.2.2.8}{}}
\citation{Sirgue}
\@writefile{lof}{\contentsline {figure}{\numberline {2.3}{\ignorespaces  Each point in the cloud corresponds to a couple of sources and receivers. Here the mean frequency $f_0$ is equal to 5 Hz and the velocity $c_0$ is equal to 2000 m/s. An ensemble of $N_s = 51$ sources (resp. $N_r = 51$ receivers) have been regularly placed on the surface spanning a range from $start = 0$ km to $finish = 10$ km. The diffraction point $\mathbf  {x} = ( 5000, -3000)$ is situated 5 kms from $start$ on the horizontal axis and 3 kms deep in the subsurface.\relax }}{5}{figure.caption.6}\protected@file@percent }
\newlabel{fig:wvnb_cloud}{{2.3}{5}{Each point in the cloud corresponds to a couple of sources and receivers. Here the mean frequency $f_0$ is equal to 5 Hz and the velocity $c_0$ is equal to 2000 m/s. An ensemble of $N_s = 51$ sources (resp. $N_r = 51$ receivers) have been regularly placed on the surface spanning a range from $start = 0$ km to $finish = 10$ km. The diffraction point $\mathbf {x} = ( 5000, -3000)$ is situated 5 kms from $start$ on the horizontal axis and 3 kms deep in the subsurface.\relax }{figure.caption.6}{}}
\newlabel{rmk:f0}{{1}{5}{}{rmk.1}{}}
\citation{wvnb_trigo}
\@writefile{toc}{\contentsline {chapter}{\numberline {3}Optimization of the wavenumber space coverage }{6}{chapter.3}\protected@file@percent }
\@writefile{lof}{\addvspace {10\p@ }}
\@writefile{lot}{\addvspace {10\p@ }}
\newlabel{ch:2}{{3}{6}{Optimization of the wavenumber space coverage}{chapter.3}{}}
\@writefile{loa}{\addvspace {10\p@ }}
\newlabel{sec:wvnbs}{{3.1}{6}{Study of the domain of the wavenumber space coverage}{section.3.1}{}}
\@writefile{toc}{\contentsline {section}{\numberline {3.1}Study of the domain of the wavenumber space coverage }{6}{section.3.1}\protected@file@percent }
\@writefile{lof}{\contentsline {figure}{\numberline {3.1}{\ignorespaces A source $s$ and a receiver $r$ are positioned at the surface. We denote by $p_s$ and $p_r$ the unit-length directions of the rays connecting respectively the source and the receiver to the diffraction point $\mathbf  {x}$ in the middle along with the angles $\phi _s$ and $\phi _r$ that the rays make with the vertical axis. In the case of a non-homogeneous medium the angles $\varphi $'s do not correspond to the angles $\phi $'s.\relax }}{6}{figure.caption.7}\protected@file@percent }
\newlabel{fig:acquisition_angles}{{3.1}{6}{A source $s$ and a receiver $r$ are positioned at the surface. We denote by $p_s$ and $p_r$ the unit-length directions of the rays connecting respectively the source and the receiver to the diffraction point $\mathbf {x}$ in the middle along with the angles $\phi _s$ and $\phi _r$ that the rays make with the vertical axis. In the case of a non-homogeneous medium the angles $\varphi $'s do not correspond to the angles $\phi $'s.\relax }{figure.caption.7}{}}
\newlabel{eq:ps_pr}{{3.1}{6}{Study of the domain of the wavenumber space coverage}{equation.3.1.1}{}}
\newlabel{eq:wvnb_angles}{{3.2}{6}{Study of the domain of the wavenumber space coverage}{equation.3.1.2}{}}
\@writefile{lof}{\contentsline {figure}{\numberline {3.2}{\ignorespaces Reference acquisition layout and its wavenumber cloud.\relax }}{7}{figure.caption.8}\protected@file@percent }
\newlabel{fig:ref}{{3.2}{7}{Reference acquisition layout and its wavenumber cloud.\relax }{figure.caption.8}{}}
\@writefile{toc}{\contentsline {subsection}{\numberline {3.1.1}Size of the Area}{7}{subsection.3.1.1}\protected@file@percent }
\newlabel{eq:circular_arcs}{{3.3}{7}{Size of the Area}{equation.3.1.3}{}}
\newlabel{eq:W}{{3.4}{7}{Size of the Area}{equation.3.1.4}{}}
\@writefile{lof}{\contentsline {figure}{\numberline {3.3}{\ignorespaces The circular arcs in the wavenumbers cloud of figure \ref  {fig:wvnb_cloud} associated to some of the sources in the acquisition layout. Notice how the centers of the circular arcs also form a circular arc above the wavenumber cloud.\relax }}{8}{figure.caption.9}\protected@file@percent }
\newlabel{fig:circular_arcs}{{3.3}{8}{The circular arcs in the wavenumbers cloud of figure \ref {fig:wvnb_cloud} associated to some of the sources in the acquisition layout. Notice how the centers of the circular arcs also form a circular arc above the wavenumber cloud.\relax }{figure.caption.9}{}}
\@writefile{lof}{\contentsline {figure}{\numberline {3.4}{\ignorespaces Enveloppe of the domain of \ref  {fig:ref} (in blue) and the maximum theoretical expansion possible of the domain (in red) if $\phi _{max} =\frac  {\pi }{2}$.\relax }}{8}{figure.caption.10}\protected@file@percent }
\newlabel{fig:enveloppe}{{3.4}{8}{Enveloppe of the domain of \ref {fig:ref} (in blue) and the maximum theoretical expansion possible of the domain (in red) if $\phi _{max} =\frac {\pi }{2}$.\relax }{figure.caption.10}{}}
\newlabel{sec:nb_pts}{{3.1.2}{8}{Number of points}{subsection.3.1.2}{}}
\@writefile{toc}{\contentsline {subsection}{\numberline {3.1.2}Number of points }{8}{subsection.3.1.2}\protected@file@percent }
\@writefile{lof}{\contentsline {figure}{\numberline {3.5}{\ignorespaces The sources and receivers of the reference layout have been shifted on opposite directions, both with a distance of $119$ m.\relax }}{9}{figure.caption.11}\protected@file@percent }
\newlabel{fig:shifted}{{3.5}{9}{The sources and receivers of the reference layout have been shifted on opposite directions, both with a distance of $119$ m.\relax }{figure.caption.11}{}}
\newlabel{sec:regularity}{{3.1.3}{9}{Regularity}{subsection.3.1.3}{}}
\@writefile{toc}{\contentsline {subsection}{\numberline {3.1.3}Regularity }{9}{subsection.3.1.3}\protected@file@percent }
\newlabel{eq:distance}{{3.5}{9}{Regularity}{equation.3.1.5}{}}
\citation{bruno-levy}
\@writefile{lof}{\contentsline {figure}{\numberline {3.6}{\ignorespaces Acquisition layout and wavenumber clouds associated to a regular distribution of the angles $\phi _s$ and $\phi _r$.\relax }}{10}{figure.caption.12}\protected@file@percent }
\newlabel{fig:regular}{{3.6}{10}{Acquisition layout and wavenumber clouds associated to a regular distribution of the angles $\phi _s$ and $\phi _r$.\relax }{figure.caption.12}{}}
\@writefile{toc}{\contentsline {section}{\numberline {3.2}Centroidal Voronoi Tessellation}{10}{section.3.2}\protected@file@percent }
\newlabel{eq:voronoi_cell}{{3.7}{10}{Centroidal Voronoi Tessellation}{equation.3.2.7}{}}
\citation{bruno-levy}
\citation{cvt_algo-appli}
\citation{cvt_algo-appli}
\citation{bruno-levy}
\citation{Lloyd}
\citation{cvt_algo-appli}
\newlabel{eq:mass}{{3.8}{11}{Centroidal Voronoi Tessellation}{equation.3.2.8}{}}
\newlabel{def1}{{1}{11}{\cite [Definition 1]{bruno-levy}}{defi.1}{}}
\newlabel{fig:voronoi_diagram}{{3.7(a)}{11}{Subfigure 3 3.7(a)}{subfigure.3.7.1}{}}
\newlabel{sub@fig:voronoi_diagram}{{(a)}{11}{Subfigure 3 3.7(a)\relax }{subfigure.3.7.1}{}}
\newlabel{fig:cvt}{{3.7(b)}{11}{Subfigure 3 3.7(b)}{subfigure.3.7.2}{}}
\newlabel{sub@fig:cvt}{{(b)}{11}{Subfigure 3 3.7(b)\relax }{subfigure.3.7.2}{}}
\newlabel{fig:cvt}{{3.7(c)}{11}{Subfigure 3 3.7(c)}{subfigure.3.7.3}{}}
\newlabel{sub@fig:cvt}{{(c)}{11}{Subfigure 3 3.7(c)\relax }{subfigure.3.7.3}{}}
\@writefile{lof}{\contentsline {figure}{\numberline {3.7}{\ignorespaces Examples of a Voronoi Tessellation (left) and a CVT of an hectagon (center) with a constant density function $\rho $. Another CVT of the hectagon is also possible as illustrated in the example on the right.\relax }}{11}{figure.caption.13}\protected@file@percent }
\newlabel{fig:voronoi}{{3.7}{11}{Examples of a Voronoi Tessellation (left) and a CVT of an hectagon (center) with a constant density function $\rho $. Another CVT of the hectagon is also possible as illustrated in the example on the right.\relax }{figure.caption.13}{}}
\@writefile{lof}{\contentsline {subfigure}{\numberline{(a)}{\ignorespaces {A Voronoi tessellation}}}{11}{figure.caption.13}\protected@file@percent }
\@writefile{lof}{\contentsline {subfigure}{\numberline{(b)}{\ignorespaces {A Centroidal Voronoi Tessellation}}}{11}{figure.caption.13}\protected@file@percent }
\@writefile{lof}{\contentsline {subfigure}{\numberline{(c)}{\ignorespaces {A different CVT}}}{11}{figure.caption.13}\protected@file@percent }
\@writefile{toc}{\contentsline {subsection}{\numberline {3.2.1}Geometric characterization}{11}{subsection.3.2.1}\protected@file@percent }
\newlabel{eq:system}{{3.9}{11}{Geometric characterization}{equation.3.2.9}{}}
\citation{cvt_algo-appli}
\citation{bruno-levy}
\citation{cvt_algo-appli}
\citation{cvt_algo-appli}
\citation{bruno-levy}
\@writefile{loa}{\contentsline {algocf}{\numberline {1}{\ignorespaces Lloyd's method \cite  [p. 657]{cvt_algo-appli}\relax }}{12}{algocf.1}\protected@file@percent }
\newlabel{alg:lloyd}{{1}{12}{Geometric characterization}{algocf.1}{}}
\newlabel{eq:fixed-pt}{{3.10}{12}{Geometric characterization}{equation.3.2.10}{}}
\@writefile{toc}{\contentsline {subsection}{\numberline {3.2.2}Variational characterization}{12}{subsection.3.2.2}\protected@file@percent }
\newlabel{eq:F}{{3.11}{12}{\cite [Propositions 3.1 and 3.2]{cvt_algo-appli}}{equation.3.2.11}{}}
\newlabel{eq:mi}{{3.12}{12}{Variational characterization}{equation.3.2.12}{}}
\newlabel{eq:grad_F}{{3.13}{12}{Variational characterization}{equation.3.2.13}{}}
\citation{bruno-levy}
\citation{bruno-levy}
\citation{bruno-levy}
\newlabel{eq:min_cvt}{{3.14}{13}{Variational characterization}{equation.3.2.14}{}}
\newlabel{}{{2}{13}{}{thm.2}{}}
\@writefile{lof}{\contentsline {figure}{\numberline {3.8}{\ignorespaces Illustration of remark \ref  {rmk:bruno}: with enough seed points no ridge of the Voronoi cells is parallel to the boundary of the domain.\relax }}{13}{figure.caption.14}\protected@file@percent }
\newlabel{fig:remark}{{3.8}{13}{Illustration of remark \ref {rmk:bruno}: with enough seed points no ridge of the Voronoi cells is parallel to the boundary of the domain.\relax }{figure.caption.14}{}}
\newlabel{rmk:bruno}{{2}{13}{}{rmk.2}{}}
\newlabel{eq:cvt_descent}{{3.15}{13}{Variational characterization}{equation.3.2.15}{}}
\citation{bruno-levy}
\citation{bruno-levy}
\newlabel{eq:cvt_newton}{{3.16}{14}{Variational characterization}{equation.3.2.16}{}}
\newlabel{sec:regularity_pb}{{3.3}{14}{Regularity of the wavenumber coverage as an instance of CVT}{section.3.3}{}}
\@writefile{toc}{\contentsline {section}{\numberline {3.3}Regularity of the wavenumber coverage as an instance of CVT }{14}{section.3.3}\protected@file@percent }
\newlabel{fig:no_lloyd1}{{3.9(a)}{15}{Subfigure 3 3.9(a)}{subfigure.3.9.1}{}}
\newlabel{sub@fig:no_lloyd1}{{(a)}{15}{Subfigure 3 3.9(a)\relax }{subfigure.3.9.1}{}}
\newlabel{fig:no_lloyd2}{{3.9(b)}{15}{Subfigure 3 3.9(b)}{subfigure.3.9.2}{}}
\newlabel{sub@fig:no_lloyd2}{{(b)}{15}{Subfigure 3 3.9(b)\relax }{subfigure.3.9.2}{}}
\@writefile{lof}{\contentsline {figure}{\numberline {3.9}{\ignorespaces An attempt on applying the update of a seed by the centroid of its Voronoi cell for the problem of regularity of the wavenumber cloud; the result is that the positions of the source and receiver associated to the moved seed changed and this impacted the other seeds depending on those same source and receiver. Thus Lloyd's method is impractical for our problem.\relax }}{15}{figure.caption.15}\protected@file@percent }
\newlabel{fig:no_lloyd}{{3.9}{15}{An attempt on applying the update of a seed by the centroid of its Voronoi cell for the problem of regularity of the wavenumber cloud; the result is that the positions of the source and receiver associated to the moved seed changed and this impacted the other seeds depending on those same source and receiver. Thus Lloyd's method is impractical for our problem.\relax }{figure.caption.15}{}}
\@writefile{lof}{\contentsline {subfigure}{\numberline{(a)}{\ignorespaces {A Voronoi tesselation of $\mathcal {W}$.}}}{15}{figure.caption.15}\protected@file@percent }
\@writefile{lof}{\contentsline {subfigure}{\numberline{(b)}{\ignorespaces {Result of applying an operation of Lloyd's method.}}}{15}{figure.caption.15}\protected@file@percent }
\newlabel{eq:min_phi}{{3.19}{15}{Regularity of the wavenumber coverage as an instance of CVT}{equation.3.3.19}{}}
\citation{2020NumPy-Array}
\citation{2020SciPy-NMeth}
\citation{colorized_voronoi}
\citation{shapely}
\@writefile{toc}{\contentsline {chapter}{\numberline {4}Implementation }{16}{chapter.4}\protected@file@percent }
\@writefile{lof}{\addvspace {10\p@ }}
\@writefile{lot}{\addvspace {10\p@ }}
\newlabel{ch:3}{{4}{16}{Implementation}{chapter.4}{}}
\@writefile{loa}{\addvspace {10\p@ }}
\@writefile{toc}{\contentsline {section}{\numberline {4.1}Wavenumbers}{16}{section.4.1}\protected@file@percent }
\@writefile{toc}{\contentsline {section}{\numberline {4.2}Voronoi tessellation}{16}{section.4.2}\protected@file@percent }
\newlabel{fig:voronoi1}{{4.1(a)}{17}{Subfigure 4 4.1(a)}{subfigure.4.1.1}{}}
\newlabel{sub@fig:voronoi1}{{(a)}{17}{Subfigure 4 4.1(a)\relax }{subfigure.4.1.1}{}}
\newlabel{fig:voronoi2}{{4.1(b)}{17}{Subfigure 4 4.1(b)}{subfigure.4.1.2}{}}
\newlabel{sub@fig:voronoi2}{{(b)}{17}{Subfigure 4 4.1(b)\relax }{subfigure.4.1.2}{}}
\newlabel{fig:voronoi3}{{4.1(c)}{17}{Subfigure 4 4.1(c)}{subfigure.4.1.3}{}}
\newlabel{sub@fig:voronoi3}{{(c)}{17}{Subfigure 4 4.1(c)\relax }{subfigure.4.1.3}{}}
\@writefile{lof}{\contentsline {figure}{\numberline {4.1}{\ignorespaces Creation process of a Voronoi tessellation of a domain.\relax }}{17}{figure.caption.16}\protected@file@percent }
\newlabel{fig:voronoi_python}{{4.1}{17}{Creation process of a Voronoi tessellation of a domain.\relax }{figure.caption.16}{}}
\@writefile{lof}{\contentsline {subfigure}{\numberline{(a)}{\ignorespaces {Voronoi diagram produced by Scipy}}}{17}{figure.caption.16}\protected@file@percent }
\@writefile{lof}{\contentsline {subfigure}{\numberline{(b)}{\ignorespaces {Using Virtanen's script.}}}{17}{figure.caption.16}\protected@file@percent }
\@writefile{lof}{\contentsline {subfigure}{\numberline{(c)}{\ignorespaces {Intersection with the domain via Shapely.}}}{17}{figure.caption.16}\protected@file@percent }
\@writefile{toc}{\contentsline {section}{\numberline {4.3}Integration over polygons}{17}{section.4.3}\protected@file@percent }
\newlabel{eq:area}{{4.1}{17}{Integration over polygons}{equation.4.3.1}{}}
\newlabel{eq:centroid}{{4.3}{17}{Integration over polygons}{equation.4.3.3}{}}
\newlabel{eq:integralF}{{4.4}{17}{Integration over polygons}{equation.4.3.4}{}}
\@writefile{lot}{\contentsline {table}{\numberline {4.1}{\ignorespaces Relative errors\relax }}{18}{table.caption.17}\protected@file@percent }
\newlabel{tab:integrals1}{{4.1}{18}{Relative errors\relax }{table.caption.17}{}}
\newlabel{sec:optimization}{{4.4}{18}{Optimization}{section.4.4}{}}
\@writefile{toc}{\contentsline {section}{\numberline {4.4}Optimization }{18}{section.4.4}\protected@file@percent }
\newlabel{eq:1st-scheme}{{4.5}{18}{Optimization}{equation.4.4.5}{}}
\newlabel{eq:2nd-scheme}{{4.6}{18}{Optimization}{equation.4.4.6}{}}
\newlabel{fig:gradient_F}{{4.2(a)}{19}{Subfigure 4 4.2(a)}{subfigure.4.2.1}{}}
\newlabel{sub@fig:gradient_F}{{(a)}{19}{Subfigure 4 4.2(a)\relax }{subfigure.4.2.1}{}}
\newlabel{fig:gradient_F-phi}{{4.2(b)}{19}{Subfigure 4 4.2(b)}{subfigure.4.2.2}{}}
\newlabel{sub@fig:gradient_F-phi}{{(b)}{19}{Subfigure 4 4.2(b)\relax }{subfigure.4.2.2}{}}
\@writefile{lof}{\contentsline {figure}{\numberline {4.2}{\ignorespaces Relative errors of the gradients with first and second order finite difference schemes. The function $F$ has been evaluated on $\mathcal  {W}$ at $24$ random points used as seeds and $F_{\phi }$ has been evaluated at an acquisition layout composed of $7$ sources and $7$ receivers of random angles $\phi _s$ and $\phi _r$.\relax }}{19}{figure.caption.18}\protected@file@percent }
\newlabel{fig:test_gradients}{{4.2}{19}{Relative errors of the gradients with first and second order finite difference schemes. The function $F$ has been evaluated on $\W $ at $24$ random points used as seeds and $F_{\phi }$ has been evaluated at an acquisition layout composed of $7$ sources and $7$ receivers of random angles $\phi _s$ and $\phi _r$.\relax }{figure.caption.18}{}}
\@writefile{lof}{\contentsline {subfigure}{\numberline{(a)}{\ignorespaces {Test $\nabla F$ on $\mathcal {W}$.}}}{19}{figure.caption.18}\protected@file@percent }
\@writefile{lof}{\contentsline {subfigure}{\numberline{(b)}{\ignorespaces {Test $\nabla F_{\phi }$ on a random layout.}}}{19}{figure.caption.18}\protected@file@percent }
\@writefile{lot}{\contentsline {table}{\numberline {4.2}{\ignorespaces Comparison of the results between the Lloyd's and BFGS methods.\relax }}{19}{table.caption.19}\protected@file@percent }
\newlabel{tab:Lloyd_BFGS}{{4.2}{19}{Comparison of the results between the Lloyd's and BFGS methods.\relax }{table.caption.19}{}}
\@writefile{toc}{\contentsline {chapter}{\numberline {5}Results }{20}{chapter.5}\protected@file@percent }
\@writefile{lof}{\addvspace {10\p@ }}
\@writefile{lot}{\addvspace {10\p@ }}
\newlabel{ch:4}{{5}{20}{Results}{chapter.5}{}}
\@writefile{loa}{\addvspace {10\p@ }}
\newlabel{sec:first_result}{{5.1}{20}{A first optimization of the layout}{section.5.1}{}}
\@writefile{toc}{\contentsline {section}{\numberline {5.1}A first optimization of the layout }{20}{section.5.1}\protected@file@percent }
\@writefile{toc}{\contentsline {section}{\numberline {5.2}CVT of $\mathcal  {W}$}{20}{section.5.2}\protected@file@percent }
\@writefile{lot}{\contentsline {table}{\numberline {5.1}{\ignorespaces Comparison of the values of the energy function $F$ at the stable CVT of $\mathcal  {W}$ and for the optimized layout.\relax }}{20}{table.caption.22}\protected@file@percent }
\newlabel{tab:optimization_cvt}{{5.1}{20}{Comparison of the values of the energy function $F$ at the stable CVT of $\W $ and for the optimized layout.\relax }{table.caption.22}{}}
\@writefile{lof}{\contentsline {figure}{\numberline {5.1}{\ignorespaces The optimal positioning of $10$ sources and $10$ receivers inside a range $[0, 10 000]$ on the surface, resulting from the optimal angles returned by BFGS using the configuration of figure \ref  {fig:shifted} as initialization.\relax }}{21}{figure.caption.20}\protected@file@percent }
\newlabel{fig:first_result}{{5.1}{21}{The optimal positioning of $10$ sources and $10$ receivers inside a range $[0, 10 000]$ on the surface, resulting from the optimal angles returned by BFGS using the configuration of figure \ref {fig:shifted} as initialization.\relax }{figure.caption.20}{}}
\@writefile{toc}{\contentsline {section}{\numberline {5.3}Different initializations}{21}{section.5.3}\protected@file@percent }
\newlabel{fig:cvt_W}{{5.2(a)}{22}{Subfigure 5 5.2(a)}{subfigure.5.2.1}{}}
\newlabel{sub@fig:cvt_W}{{(a)}{22}{Subfigure 5 5.2(a)\relax }{subfigure.5.2.1}{}}
\newlabel{fig:vt_W}{{5.2(b)}{22}{Subfigure 5 5.2(b)}{subfigure.5.2.2}{}}
\newlabel{sub@fig:vt_W}{{(b)}{22}{Subfigure 5 5.2(b)\relax }{subfigure.5.2.2}{}}
\@writefile{lof}{\contentsline {figure}{\numberline {5.2}{\ignorespaces Comparison of a stable CVT and the Voronoi tessellation generated by the points of the optimized wavenumber cloud.\relax }}{22}{figure.caption.21}\protected@file@percent }
\newlabel{fig:cvt_vt_W}{{5.2}{22}{Comparison of a stable CVT and the Voronoi tessellation generated by the points of the optimized wavenumber cloud.\relax }{figure.caption.21}{}}
\@writefile{lof}{\contentsline {subfigure}{\numberline{(a)}{\ignorespaces {A stable CVT of $\mathcal {W}$ obtained via BFGS.}}}{22}{figure.caption.21}\protected@file@percent }
\@writefile{lof}{\contentsline {subfigure}{\numberline{(b)}{\ignorespaces {The Voronoi tessellation of $\mathcal {W}$ from the previous optimal wavenumbers.}}}{22}{figure.caption.21}\protected@file@percent }
\@writefile{lot}{\contentsline {table}{\numberline {5.2}{\ignorespaces Comparison of the results of different determinitic initializations for the optimization program.\relax }}{22}{table.caption.23}\protected@file@percent }
\newlabel{tab:initializations_regular}{{5.2}{22}{Comparison of the results of different determinitic initializations for the optimization program.\relax }{table.caption.23}{}}
\@writefile{lot}{\contentsline {table}{\numberline {5.3}{\ignorespaces Comparison of the results over $10$ runs of different random initializations for the optimization program.\relax }}{23}{table.caption.24}\protected@file@percent }
\newlabel{tab:initializations_random}{{5.3}{23}{Comparison of the results over $10$ runs of different random initializations for the optimization program.\relax }{table.caption.24}{}}
\@writefile{lof}{\contentsline {figure}{\numberline {5.3}{\ignorespaces The best result returned by BFGS from all the previous runs, using an initial configuration obtained from random angles.\relax }}{23}{figure.caption.25}\protected@file@percent }
\newlabel{fig:best_result}{{5.3}{23}{The best result returned by BFGS from all the previous runs, using an initial configuration obtained from random angles.\relax }{figure.caption.25}{}}
\citation{bruno-levy}
\@writefile{toc}{\contentsline {chapter}{\numberline {6}Conclusion}{24}{chapter.6}\protected@file@percent }
\@writefile{lof}{\addvspace {10\p@ }}
\@writefile{lot}{\addvspace {10\p@ }}
\@writefile{loa}{\addvspace {10\p@ }}
\citation{Nocedal}
\citation{Nocedal}
\@writefile{toc}{\contentsline {chapter}{\numberline {A}Optimization}{25}{appendix.A}\protected@file@percent }
\@writefile{lof}{\addvspace {10\p@ }}
\@writefile{lot}{\addvspace {10\p@ }}
\@writefile{loa}{\addvspace {10\p@ }}
\citation{lecture_notes}
\citation{adjoint_tuto}
\bibstyle{plainnat}
\bibdata{biblio}
\@writefile{toc}{\contentsline {chapter}{\numberline {B}Adjoint state method }{26}{appendix.B}\protected@file@percent }
\@writefile{lof}{\addvspace {10\p@ }}
\@writefile{lot}{\addvspace {10\p@ }}
\newlabel{ch:adjoint}{{B}{26}{Adjoint state method}{appendix.B}{}}
\@writefile{loa}{\addvspace {10\p@ }}
\newlabel{eq:grad_sum}{{B.1}{26}{Adjoint state method}{equation.B.0.1}{}}
\newlabel{eq:adjoint}{{B.2}{26}{Adjoint state method}{equation.B.0.2}{}}
\bibcite{adjoint_tuto}{{1}{2019}{{Bradley}}{{}}}
\bibcite{adjoint_geophysics}{{2}{1974}{{Chavent}}{{}}}
\bibcite{cvt_algo-appli}{{3}{1999}{{Du et~al.}}{{Du, Faber, and Gunzburger}}}
\bibcite{shapely}{{4}{2007--2021}{{Gillies et~al.}}{{}}}
\bibcite{2020NumPy-Array}{{5}{2020}{{Harris et~al.}}{{Harris, Millman, van~der Walt, Gommers, Virtanen, Cournapeau, Wieser, Taylor, Berg, Smith, Kern, Picus, Hoyer, van Kerkwijk, Brett, Haldane, Fernández~del Río, Wiebe, Peterson, Gérard-Marchant, Sheppard, Reddy, Weckesser, Abbasi, Gohlke, and Oliphant}}}
\bibcite{wvnb_trigo}{{6}{2014}{{Huang and Schuster}}{{}}}
\bibcite{bruno-levy}{{7}{2009}{{Liu et~al.}}{{Liu, Wang, L\'{e}vy, Sun, Yan, Lu, and Yang}}}
\bibcite{Lloyd}{{8}{1982}{{Lloyd}}{{}}}
\bibcite{lecture_notes}{{9}{2021}{{Métivier}}{{}}}
\bibcite{Nocedal}{{10}{2006}{{Nocedal and Wright}}{{}}}
\bibcite{Sirgue}{{11}{2004}{{Sirgue and Pratt}}{{}}}
\bibcite{colorized_voronoi}{{12}{}{{Virtanen}}{{}}}
\bibcite{2020SciPy-NMeth}{{13}{2020}{{Virtanen et~al.}}{{Virtanen, Gommers, Oliphant, Haberland, Reddy, Cournapeau, Burovski, Peterson, Weckesser, Bright, {van der Walt}, Brett, Wilson, Millman, Mayorov, Nelson, Jones, Kern, Larson, Carey, Polat, Feng, Moore, {VanderPlas}, Laxalde, Perktold, Cimrman, Henriksen, Quintero, Harris, Archibald, Ribeiro, Pedregosa, {van Mulbregt}, and {SciPy 1.0 Contributors}}}}
\@writefile{toc}{\contentsline {chapter}{Bibliography}{27}{appendix*.26}\protected@file@percent }
