\relax 
\providecommand\hyper@newdestlabel[2]{}
\providecommand\zref@newlabel[2]{}
\providecommand\HyperFirstAtBeginDocument{\AtBeginDocument}
\HyperFirstAtBeginDocument{\ifx\hyper@anchor\@undefined
\global\let\oldcontentsline\contentsline
\gdef\contentsline#1#2#3#4{\oldcontentsline{#1}{#2}{#3}}
\global\let\oldnewlabel\newlabel
\gdef\newlabel#1#2{\newlabelxx{#1}#2}
\gdef\newlabelxx#1#2#3#4#5#6{\oldnewlabel{#1}{{#2}{#3}}}
\AtEndDocument{\ifx\hyper@anchor\@undefined
\let\contentsline\oldcontentsline
\let\newlabel\oldnewlabel
\fi}
\fi}
\global\let\hyper@last\relax 
\gdef\HyperFirstAtBeginDocument#1{#1}
\providecommand\HyField@AuxAddToFields[1]{}
\providecommand\HyField@AuxAddToCoFields[2]{}
\providecommand\pbs@newkey[2]{}
\providecommand\pbs@seq@push@cx[2]{}
\providecommand\pbs@at@end@dvi@check{}
\pbs@at@end@dvi@check
\providecommand\@anim@newkey[2]{}
\pbs@newkey{pbs@last@page}{1}
\pgfsyspdfmark {pgfid1}{1864679}{16996545}
\@writefile{nav}{\headcommand {\slideentry {0}{0}{1}{1/1}{}{0}}}
\@writefile{nav}{\headcommand {\beamer@framepages {1}{1}}}
\pbs@newkey{pbs@last@page}{2}
\@writefile{nav}{\headcommand {\slideentry {0}{0}{2}{2/2}{}{0}}}
\@writefile{nav}{\headcommand {\beamer@framepages {2}{2}}}
\pbs@newkey{pbs@last@page}{3}
\@writefile{toc}{\beamer@sectionintoc {1}{Full Waveform Inversion}{3}{0}{1}}
\@writefile{nav}{\headcommand {\beamer@sectionpages {1}{2}}}
\@writefile{nav}{\headcommand {\beamer@subsectionpages {1}{2}}}
\@writefile{nav}{\headcommand {\sectionentry {1}{Full Waveform Inversion}{3}{Full Waveform Inversion}{0}}}
\@writefile{nav}{\headcommand {\slideentry {1}{0}{1}{3/3}{}{0}}}
\@writefile{nav}{\headcommand {\beamer@framepages {3}{3}}}
\pbs@newkey{pbs@last@page}{4}
\pbs@newkey{pbs@last@page}{5}
\pbs@newkey{pbs@last@page}{6}
\@writefile{nav}{\headcommand {\slideentry {1}{0}{2}{4/6}{}{0}}}
\@writefile{nav}{\headcommand {\beamer@framepages {4}{6}}}
\pbs@newkey{pbs@last@page}{7}
\pbs@newkey{pbs@last@page}{8}
\pbs@newkey{pbs@last@page}{9}
\pbs@newkey{pbs@last@page}{10}
\@writefile{nav}{\headcommand {\slideentry {1}{0}{3}{7/10}{}{0}}}
\@writefile{nav}{\headcommand {\beamer@framepages {7}{10}}}
\pbs@newkey{pbs@last@page}{11}
\newlabel{fig:tracea}{{1(a)}{11}{Subfigure 1(a)}{Doc-Start}{}}
\@writefile{snm}{\beamer@slide {fig:tracea}{11}}
\newlabel{sub@fig:tracea}{{(a)}{11}{Subfigure 1(a)\relax }{Doc-Start}{}}
\newlabel{fig:traceb}{{1(b)}{11}{Subfigure 1(b)}{Doc-Start}{}}
\@writefile{snm}{\beamer@slide {fig:traceb}{11}}
\newlabel{sub@fig:traceb}{{(b)}{11}{Subfigure 1(b)\relax }{Doc-Start}{}}
\@writefile{}{\contentsline {subfigure}{\numberline{(a)}{\ignorespaces {A seismic trace}}}}
\@writefile{}{\contentsline {subfigure}{\numberline{(b)}{\ignorespaces {Seismogram}}}}
\newlabel{fig:offset}{{1}{11}{Full Waveform Inversion}{Doc-Start}{}}
\@writefile{snm}{\beamer@slide {fig:offset}{11}}
\@writefile{nav}{\headcommand {\slideentry {1}{0}{4}{11/11}{}{0}}}
\@writefile{nav}{\headcommand {\beamer@framepages {11}{11}}}
\pbs@newkey{pbs@last@page}{12}
\@writefile{snm}{\beamer@slide {eq:pde}{12}}
\newlabel{eq:pde}{{1}{12}{Full Waveform Inversion}{Doc-Start}{}}
\pbs@newkey{pbs@last@page}{13}
\pbs@newkey{pbs@last@page}{14}
\@writefile{nav}{\headcommand {\slideentry {1}{0}{5}{12/14}{}{0}}}
\@writefile{nav}{\headcommand {\beamer@framepages {12}{14}}}
\pbs@newkey{pbs@last@page}{15}
\@writefile{snm}{\beamer@slide {eq:min}{15}}
\newlabel{eq:min}{{2}{15}{Full Waveform Inversion}{Doc-Start}{}}
\pbs@newkey{pbs@last@page}{16}
\@writefile{nav}{\headcommand {\slideentry {1}{0}{6}{15/16}{}{0}}}
\@writefile{nav}{\headcommand {\beamer@framepages {15}{16}}}
\citation{lecture_notes}
\pbs@newkey{pbs@last@page}{17}
\citation{lecture_notes}
\pbs@newkey{pbs@last@page}{18}
\citation{lecture_notes}
\pbs@newkey{pbs@last@page}{19}
\citation{lecture_notes}
\pbs@newkey{pbs@last@page}{20}
\citation{lecture_notes}
\pbs@newkey{pbs@last@page}{21}
\citation{lecture_notes}
\pbs@newkey{pbs@last@page}{22}
\@writefile{nav}{\headcommand {\slideentry {1}{0}{7}{17/22}{}{0}}}
\@writefile{nav}{\headcommand {\beamer@framepages {17}{22}}}
\pbs@newkey{pbs@last@page}{23}
\pbs@newkey{pbs@last@page}{24}
\pbs@newkey{pbs@last@page}{25}
\pbs@newkey{pbs@last@page}{26}
\@writefile{nav}{\headcommand {\slideentry {1}{0}{8}{23/26}{}{0}}}
\@writefile{nav}{\headcommand {\beamer@framepages {23}{26}}}
\pbs@newkey{pbs@last@page}{27}
\@writefile{snm}{\beamer@slide {eq:approximation}{27}}
\newlabel{eq:approximation}{{3}{27}{Full Waveform Inversion}{Doc-Start}{}}
\pbs@newkey{pbs@last@page}{28}
\pbs@newkey{pbs@last@page}{29}
\pbs@newkey{pbs@last@page}{30}
\pbs@newkey{pbs@last@page}{31}
\@writefile{nav}{\headcommand {\slideentry {1}{0}{9}{27/31}{}{0}}}
\@writefile{nav}{\headcommand {\beamer@framepages {27}{31}}}
\pbs@newkey{pbs@last@page}{32}
\@writefile{snm}{\beamer@slide {eq:ps+pr}{32}}
\newlabel{eq:ps+pr}{{4}{32}{Full Waveform Inversion}{Doc-Start}{}}
\newlabel{fig:wavenumber_space}{{3}{32}{Full Waveform Inversion}{Doc-Start}{}}
\@writefile{snm}{\beamer@slide {fig:wavenumber_space}{32}}
\pbs@newkey{pbs@last@page}{33}
\@writefile{nav}{\headcommand {\slideentry {1}{0}{10}{32/33}{}{0}}}
\@writefile{nav}{\headcommand {\beamer@framepages {32}{33}}}
\citation{Sirgue}
\citation{Sirgue}
\pbs@newkey{pbs@last@page}{34}
\@writefile{nav}{\headcommand {\slideentry {1}{0}{11}{34/34}{}{0}}}
\@writefile{nav}{\headcommand {\beamer@framepages {34}{34}}}
\pbs@newkey{pbs@last@page}{35}
\@writefile{toc}{\beamer@sectionintoc {2}{Study of the wavenumber cloud}{35}{0}{2}}
\@writefile{nav}{\headcommand {\beamer@sectionpages {3}{34}}}
\@writefile{nav}{\headcommand {\beamer@subsectionpages {3}{34}}}
\@writefile{nav}{\headcommand {\sectionentry {2}{Study of the wavenumber cloud}{35}{Study of the wavenumber cloud}{0}}}
\@writefile{nav}{\headcommand {\slideentry {2}{0}{1}{35/35}{}{0}}}
\@writefile{nav}{\headcommand {\beamer@framepages {35}{35}}}
\pbs@newkey{pbs@last@page}{36}
\pbs@newkey{pbs@last@page}{37}
\pbs@newkey{pbs@last@page}{38}
\pbs@newkey{pbs@last@page}{39}
\@writefile{nav}{\headcommand {\slideentry {2}{0}{2}{36/39}{}{0}}}
\@writefile{nav}{\headcommand {\beamer@framepages {36}{39}}}
\pbs@newkey{pbs@last@page}{40}
\newlabel{fig:circular_arcs}{{5}{40}{Study of the wavenumber cloud}{Doc-Start}{}}
\@writefile{snm}{\beamer@slide {fig:circular_arcs}{40}}
\@writefile{nav}{\headcommand {\slideentry {2}{0}{3}{40/40}{}{0}}}
\@writefile{nav}{\headcommand {\beamer@framepages {40}{40}}}
\pbs@newkey{pbs@last@page}{41}
\newlabel{fig:envelope}{{6}{41}{Study of the wavenumber cloud}{Doc-Start}{}}
\@writefile{snm}{\beamer@slide {fig:envelope}{41}}
\pbs@newkey{pbs@last@page}{42}
\@writefile{nav}{\headcommand {\slideentry {2}{0}{4}{41/42}{}{0}}}
\@writefile{nav}{\headcommand {\beamer@framepages {41}{42}}}
\pbs@newkey{pbs@last@page}{43}
\pbs@newkey{pbs@last@page}{44}
\@writefile{nav}{\headcommand {\slideentry {2}{0}{5}{43/44}{}{0}}}
\@writefile{nav}{\headcommand {\beamer@framepages {43}{44}}}
\pbs@newkey{pbs@last@page}{45}
\@writefile{toc}{\beamer@sectionintoc {3}{Centroidal Voronoi Tessellation}{45}{0}{3}}
\@writefile{nav}{\headcommand {\beamer@sectionpages {35}{44}}}
\@writefile{nav}{\headcommand {\beamer@subsectionpages {35}{44}}}
\@writefile{nav}{\headcommand {\sectionentry {3}{Centroidal Voronoi Tessellation}{45}{Centroidal Voronoi Tessellation}{0}}}
\@writefile{nav}{\headcommand {\slideentry {3}{0}{1}{45/45}{}{0}}}
\@writefile{nav}{\headcommand {\beamer@framepages {45}{45}}}
\pbs@newkey{pbs@last@page}{46}
\newlabel{fig:voronoi_diagram}{{7(a)}{46}{Subfigure 7(a)}{Doc-Start}{}}
\@writefile{snm}{\beamer@slide {fig:voronoi_diagram}{46}}
\newlabel{sub@fig:voronoi_diagram}{{(a)}{46}{Subfigure 7(a)\relax }{Doc-Start}{}}
\newlabel{fig:cvt}{{7(b)}{46}{Subfigure 7(b)}{Doc-Start}{}}
\@writefile{snm}{\beamer@slide {fig:cvt}{46}}
\newlabel{sub@fig:cvt}{{(b)}{46}{Subfigure 7(b)\relax }{Doc-Start}{}}
\newlabel{fig:cvt}{{7(c)}{46}{Subfigure 7(c)}{Doc-Start}{}}
\@writefile{snm}{\beamer@slide {fig:cvt}{46}}
\newlabel{sub@fig:cvt}{{(c)}{46}{Subfigure 7(c)\relax }{Doc-Start}{}}
\@writefile{}{\contentsline {subfigure}{\numberline{(a)}{\ignorespaces {A Voronoi tessellation}}}}
\@writefile{}{\contentsline {subfigure}{\numberline{(b)}{\ignorespaces {A CVT}}}}
\@writefile{}{\contentsline {subfigure}{\numberline{(c)}{\ignorespaces {A different CVT}}}}
\newlabel{fig:voronoi}{{7}{46}{Centroidal Voronoi Tessellation}{Doc-Start}{}}
\@writefile{snm}{\beamer@slide {fig:voronoi}{46}}
\pbs@newkey{pbs@last@page}{47}
\newlabel{sub@fig:voronoi_diagram}{{(a)}{47}{Subfigure 7(a)\relax }{Doc-Start}{}}
\newlabel{sub@fig:cvt}{{(b)}{47}{Subfigure 7(b)\relax }{Doc-Start}{}}
\newlabel{sub@fig:cvt}{{(c)}{47}{Subfigure 7(c)\relax }{Doc-Start}{}}
\@writefile{}{\contentsline {subfigure}{\numberline{(a)}{\ignorespaces {A Voronoi tessellation}}}}
\@writefile{}{\contentsline {subfigure}{\numberline{(b)}{\ignorespaces {A CVT}}}}
\@writefile{}{\contentsline {subfigure}{\numberline{(c)}{\ignorespaces {A different CVT}}}}
\pbs@newkey{pbs@last@page}{48}
\newlabel{sub@fig:voronoi_diagram}{{(a)}{48}{Subfigure 7(a)\relax }{Doc-Start}{}}
\newlabel{sub@fig:cvt}{{(b)}{48}{Subfigure 7(b)\relax }{Doc-Start}{}}
\newlabel{sub@fig:cvt}{{(c)}{48}{Subfigure 7(c)\relax }{Doc-Start}{}}
\@writefile{}{\contentsline {subfigure}{\numberline{(a)}{\ignorespaces {A Voronoi tessellation}}}}
\@writefile{}{\contentsline {subfigure}{\numberline{(b)}{\ignorespaces {A CVT}}}}
\@writefile{}{\contentsline {subfigure}{\numberline{(c)}{\ignorespaces {A different CVT}}}}
\pbs@newkey{pbs@last@page}{49}
\newlabel{sub@fig:voronoi_diagram}{{(a)}{49}{Subfigure 7(a)\relax }{Doc-Start}{}}
\newlabel{sub@fig:cvt}{{(b)}{49}{Subfigure 7(b)\relax }{Doc-Start}{}}
\newlabel{sub@fig:cvt}{{(c)}{49}{Subfigure 7(c)\relax }{Doc-Start}{}}
\@writefile{}{\contentsline {subfigure}{\numberline{(a)}{\ignorespaces {A Voronoi tessellation}}}}
\@writefile{}{\contentsline {subfigure}{\numberline{(b)}{\ignorespaces {A CVT}}}}
\@writefile{}{\contentsline {subfigure}{\numberline{(c)}{\ignorespaces {A different CVT}}}}
\@writefile{nav}{\headcommand {\slideentry {3}{0}{2}{46/49}{}{0}}}
\@writefile{nav}{\headcommand {\beamer@framepages {46}{49}}}
\citation{bruno-levy}
\pbs@newkey{pbs@last@page}{50}
\newlabel{def1}{{1}{50}{\cite [Definition 1]{bruno-levy}}{Doc-Start}{}}
\@writefile{snm}{\beamer@slide {def1}{50}}
\citation{bruno-levy}
\pbs@newkey{pbs@last@page}{51}
\citation{bruno-levy}
\pbs@newkey{pbs@last@page}{52}
\@writefile{nav}{\headcommand {\slideentry {3}{0}{3}{50/52}{}{0}}}
\@writefile{nav}{\headcommand {\beamer@framepages {50}{52}}}
\pbs@newkey{pbs@last@page}{53}
\newlabel{fig:no_lloyd1}{{8(a)}{53}{Subfigure 8(a)}{Doc-Start}{}}
\@writefile{snm}{\beamer@slide {fig:no_lloyd1}{53}}
\newlabel{sub@fig:no_lloyd1}{{(a)}{53}{Subfigure 8(a)\relax }{Doc-Start}{}}
\newlabel{fig:no_lloyd2}{{8(b)}{53}{Subfigure 8(b)}{Doc-Start}{}}
\@writefile{snm}{\beamer@slide {fig:no_lloyd2}{53}}
\newlabel{sub@fig:no_lloyd2}{{(b)}{53}{Subfigure 8(b)\relax }{Doc-Start}{}}
\@writefile{}{\contentsline {subfigure}{\numberline{(a)}{\ignorespaces {A Voronoi tesselation of $\mathcal {W}$.}}}}
\@writefile{}{\contentsline {subfigure}{\numberline{(b)}{\ignorespaces {Result of applying an operation of Lloyd's method.}}}}
\newlabel{fig:no_lloyd}{{8}{53}{Centroidal Voronoi Tessellation}{Doc-Start}{}}
\@writefile{snm}{\beamer@slide {fig:no_lloyd}{53}}
\@writefile{nav}{\headcommand {\slideentry {3}{0}{4}{53/53}{}{0}}}
\@writefile{nav}{\headcommand {\beamer@framepages {53}{53}}}
\citation{bruno-levy}
\pbs@newkey{pbs@last@page}{54}
\@writefile{snm}{\beamer@slide {eq:F}{54}}
\newlabel{eq:F}{{20}{54}{Centroidal Voronoi Tessellation}{Doc-Start}{}}
\citation{bruno-levy}
\pbs@newkey{pbs@last@page}{55}
\citation{bruno-levy}
\pbs@newkey{pbs@last@page}{56}
\@writefile{nav}{\headcommand {\slideentry {3}{0}{5}{54/56}{}{0}}}
\@writefile{nav}{\headcommand {\beamer@framepages {54}{56}}}
\citation{bruno-levy}
\pbs@newkey{pbs@last@page}{57}
\@writefile{snm}{\beamer@slide {eq:cvt_newton}{57}}
\newlabel{eq:cvt_newton}{{21}{57}{Centroidal Voronoi Tessellation}{Doc-Start}{}}
\@writefile{nav}{\headcommand {\slideentry {3}{0}{6}{57/57}{}{0}}}
\@writefile{nav}{\headcommand {\beamer@framepages {57}{57}}}
\pbs@newkey{pbs@last@page}{58}
\pbs@newkey{pbs@last@page}{59}
\pbs@newkey{pbs@last@page}{60}
\pbs@newkey{pbs@last@page}{61}
\@writefile{nav}{\headcommand {\slideentry {3}{0}{7}{58/61}{}{0}}}
\@writefile{nav}{\headcommand {\beamer@framepages {58}{61}}}
\pbs@newkey{pbs@last@page}{62}
\@writefile{toc}{\beamer@sectionintoc {4}{Results}{62}{0}{4}}
\@writefile{nav}{\headcommand {\beamer@sectionpages {45}{61}}}
\@writefile{nav}{\headcommand {\beamer@subsectionpages {45}{61}}}
\@writefile{nav}{\headcommand {\sectionentry {4}{Results}{62}{Results}{0}}}
\@writefile{nav}{\headcommand {\slideentry {4}{0}{1}{62/62}{}{0}}}
\@writefile{nav}{\headcommand {\beamer@framepages {62}{62}}}
\pbs@newkey{pbs@last@page}{63}
\@writefile{nav}{\headcommand {\slideentry {4}{0}{2}{63/63}{}{0}}}
\@writefile{nav}{\headcommand {\beamer@framepages {63}{63}}}
\pbs@newkey{pbs@last@page}{64}
\@writefile{nav}{\headcommand {\slideentry {4}{0}{3}{64/64}{}{0}}}
\@writefile{nav}{\headcommand {\beamer@framepages {64}{64}}}
\pbs@newkey{pbs@last@page}{65}
\@writefile{nav}{\headcommand {\slideentry {4}{0}{4}{65/65}{}{0}}}
\@writefile{nav}{\headcommand {\beamer@framepages {65}{65}}}
\pbs@newkey{pbs@last@page}{66}
\@writefile{nav}{\headcommand {\slideentry {4}{0}{5}{66/66}{}{0}}}
\@writefile{nav}{\headcommand {\beamer@framepages {66}{66}}}
\pbs@newkey{pbs@last@page}{67}
\newlabel{fig:cvt_W}{{13(a)}{67}{Subfigure 13(a)}{Doc-Start}{}}
\@writefile{snm}{\beamer@slide {fig:cvt_W}{67}}
\newlabel{sub@fig:cvt_W}{{(a)}{67}{Subfigure 13(a)\relax }{Doc-Start}{}}
\newlabel{fig:vt_W}{{13(b)}{67}{Subfigure 13(b)}{Doc-Start}{}}
\@writefile{snm}{\beamer@slide {fig:vt_W}{67}}
\newlabel{sub@fig:vt_W}{{(b)}{67}{Subfigure 13(b)\relax }{Doc-Start}{}}
\@writefile{nav}{\headcommand {\slideentry {4}{0}{6}{67/67}{}{0}}}
\@writefile{nav}{\headcommand {\beamer@framepages {67}{67}}}
\pbs@newkey{pbs@last@page}{68}
\@writefile{nav}{\headcommand {\slideentry {4}{0}{7}{68/68}{}{0}}}
\@writefile{nav}{\headcommand {\beamer@framepages {68}{68}}}
\pbs@newkey{pbs@last@page}{69}
\@writefile{}{\contentsline {subtable}{\numberline{(a)}{\ignorespaces {A stable CVT of $\mathcal {W}$ obtained via BFGS with $F = 2.76 \times 10^{- 3}$.}}}}
\@writefile{}{\contentsline {subtable}{\numberline{(b)}{\ignorespaces {The Voronoi tessellation of $\mathcal {W}$ from the previous optimal wavenumbers, $F = 3.9 \times 10^{- 3}$.}}}}
\newlabel{tab:initializations_regular}{{1}{69}{Results}{Doc-Start}{}}
\@writefile{snm}{\beamer@slide {tab:initializations_regular}{69}}
\pbs@newkey{pbs@last@page}{70}
\pbs@newkey{pbs@last@page}{71}
\pbs@newkey{pbs@last@page}{72}
\pbs@newkey{pbs@last@page}{73}
\pbs@newkey{pbs@last@page}{74}
\@writefile{nav}{\headcommand {\slideentry {4}{0}{8}{69/74}{}{0}}}
\@writefile{nav}{\headcommand {\beamer@framepages {69}{74}}}
\pbs@newkey{pbs@last@page}{75}
\newlabel{fig:best_result}{{13}{75}{Results}{Doc-Start}{}}
\@writefile{snm}{\beamer@slide {fig:best_result}{75}}
\@writefile{nav}{\headcommand {\slideentry {4}{0}{9}{75/75}{}{0}}}
\@writefile{nav}{\headcommand {\beamer@framepages {75}{75}}}
\pbs@newkey{pbs@last@page}{76}
\newlabel{fig:best_result}{{14}{76}{Results}{Doc-Start}{}}
\@writefile{snm}{\beamer@slide {fig:best_result}{76}}
\@writefile{nav}{\headcommand {\slideentry {4}{0}{10}{76/76}{}{0}}}
\@writefile{nav}{\headcommand {\beamer@framepages {76}{76}}}
\pbs@newkey{pbs@last@page}{77}
\newlabel{fig:best_result}{{15}{77}{Results}{Doc-Start}{}}
\@writefile{snm}{\beamer@slide {fig:best_result}{77}}
\@writefile{nav}{\headcommand {\slideentry {4}{0}{11}{77/77}{}{0}}}
\@writefile{nav}{\headcommand {\beamer@framepages {77}{77}}}
\pbs@newkey{pbs@last@page}{78}
\@writefile{toc}{\beamer@sectionintoc {5}{Conclusion and perspectives}{78}{0}{5}}
\@writefile{nav}{\headcommand {\beamer@sectionpages {62}{77}}}
\@writefile{nav}{\headcommand {\beamer@subsectionpages {62}{77}}}
\@writefile{nav}{\headcommand {\sectionentry {5}{Conclusion and perspectives}{78}{Conclusion and perspectives}{0}}}
\@writefile{nav}{\headcommand {\slideentry {5}{0}{1}{78/78}{}{0}}}
\@writefile{nav}{\headcommand {\beamer@framepages {78}{78}}}
\pbs@newkey{pbs@last@page}{79}
\@writefile{nav}{\headcommand {\slideentry {5}{0}{2}{79/79}{}{0}}}
\@writefile{nav}{\headcommand {\beamer@framepages {79}{79}}}
\bibstyle{plainnat}
\bibdata{biblio}
\bibcite{bruno-levy}{{1}{2009}{{L\'{e}vy et~al.}}{{L\'{e}vy, Wang, Liu, Sun, Yan, Lu, and Yang}}}
\bibcite{lecture_notes}{{2}{2021}{{M\IeC {\'e}tivier}}{{}}}
\bibcite{Sirgue}{{3}{2004}{{Sirgue and Pratt}}{{}}}
\pbs@newkey{pbs@last@page}{80}
\@writefile{nav}{\headcommand {\beamer@sectionpages {78}{79}}}
\@writefile{nav}{\headcommand {\beamer@subsectionpages {78}{79}}}
\@writefile{nav}{\headcommand {\sectionentry {6}{\translate  {References}}{80}{\translate  {References}}{0}}}
\@writefile{nav}{\headcommand {\slideentry {6}{0}{0}{80/80}{}{0}}}
\@writefile{nav}{\headcommand {\beamer@framepages {80}{80}}}
\pbs@newkey{pbs@last@page}{81}
\@writefile{nav}{\headcommand {\slideentry {6}{0}{1}{81/81}{}{0}}}
\@writefile{nav}{\headcommand {\beamer@framepages {81}{81}}}
\@writefile{nav}{\headcommand {\beamer@partpages {1}{81}}}
\@writefile{nav}{\headcommand {\beamer@subsectionpages {78}{81}}}
\@writefile{nav}{\headcommand {\beamer@sectionpages {78}{81}}}
\@writefile{nav}{\headcommand {\beamer@documentpages {81}}}
\@writefile{nav}{\headcommand {\gdef \inserttotalframenumber {35}}}
