\relax 
\providecommand\hyper@newdestlabel[2]{}
\providecommand\HyperFirstAtBeginDocument{\AtBeginDocument}
\HyperFirstAtBeginDocument{\ifx\hyper@anchor\@undefined
\global\let\oldcontentsline\contentsline
\gdef\contentsline#1#2#3#4{\oldcontentsline{#1}{#2}{#3}}
\global\let\oldnewlabel\newlabel
\gdef\newlabel#1#2{\newlabelxx{#1}#2}
\gdef\newlabelxx#1#2#3#4#5#6{\oldnewlabel{#1}{{#2}{#3}}}
\AtEndDocument{\ifx\hyper@anchor\@undefined
\let\contentsline\oldcontentsline
\let\newlabel\oldnewlabel
\fi}
\fi}
\global\let\hyper@last\relax 
\gdef\HyperFirstAtBeginDocument#1{#1}
\providecommand\HyField@AuxAddToFields[1]{}
\providecommand\HyField@AuxAddToCoFields[2]{}
\@writefile{toc}{\contentsline {section}{\numberline {0.1}2021-03-02}{1}{section.0.1}\protected@file@percent }
\@writefile{toc}{\contentsline {subsection}{\numberline {0.1.1}Compute $\phi $}{1}{subsection.0.1.1}\protected@file@percent }
\newlabel{eq:2021.03-2}{{1}{1}{}{equation.0.1.1}{}}
\@writefile{tdo}{\contentsline {todo}{Improve this part}{1}{section*.1}\protected@file@percent }
\pgfsyspdfmark {pgfid1}{21943942}{14298390}
\pgfsyspdfmark {pgfid4}{34243870}{14310678}
\pgfsyspdfmark {pgfid5}{36357406}{14086764}
\@writefile{lof}{\contentsline {figure}{\numberline {1}{\ignorespaces }}{2}{figure.0.1}\protected@file@percent }
\newlabel{fig:2021.03-1}{{1}{2}{}{figure.0.1}{}}
\newlabel{eq:2021.03-1}{{4}{2}{Compute $\phi $}{equation.0.1.4}{}}
\@writefile{toc}{\contentsline {subsection}{\numberline {0.1.2}Sign of $\phi _s$ and $\phi _r$}{2}{subsection.0.1.2}\protected@file@percent }
\@writefile{lof}{\contentsline {figure}{\numberline {2}{\ignorespaces }}{3}{figure.0.2}\protected@file@percent }
\newlabel{fig:2021.03-2}{{2}{3}{}{figure.0.2}{}}
\@writefile{toc}{\contentsline {subsection}{\numberline {0.1.3}Projection}{3}{subsection.0.1.3}\protected@file@percent }
\@writefile{lof}{\contentsline {figure}{\numberline {3}{\ignorespaces }}{4}{figure.0.3}\protected@file@percent }
\newlabel{fig:2021.03-3}{{3}{4}{}{figure.0.3}{}}
